{
  "mode": "genealogy",
  "seed": 123456,
  "tf": 10.0,
  "dt": 0.1,
  "init": [
    {
      "number": 10,
      "group_id": "G",
      "trait": "[1.]"
    }
  ],
  "params": {
    "b": 10.0,
    "d": 1.0,
    "c": 1.0,
    "mu": 0.1,
    "v": 0.02
  }
}
